{
    "name": "PDF",
    "alias": "pdf",
    "description": "",
    "keywords": [],
    "priority": 0,
    "providers": [
        "Modules\\PDF\\Providers\\PDFServiceProvider"
    ],
    "aliases": {},
    "files": [],
    "requires": []
}
