{
    "name": "Asnaf",
    "alias": "asnaf",
    "description": "",
    "keywords": [],
    "priority": 0,
    "providers": [
        "Modules\\Asnaf\\Providers\\AsnafServiceProvider"
    ],
    "aliases": {},
    "files": [],
    "requires": []
}
