[2022-02-06T16:03:56.950709+03:30] inputs.INFO: random: 0.3610481508399839 [] []
[2022-02-06T16:03:56.952270+03:30] inputs.INFO: time: 1644150894 [] []
[2022-02-06T16:03:56.952713+03:30] inputs.INFO: origin: localhost [] []
[2022-02-06T16:03:56.953031+03:30] inputs.INFO: username: 09330938099 [] []
[2022-02-06T16:03:56.953376+03:30] inputs.INFO: password: 123456789 [] []
[2022-02-06T16:03:56.953666+03:30] inputs.INFO: captcha: 03AGdBq25MtPFDiLGthDuEokW2nquzl7DI9UsbiurU2zF9iLHJvslI504ctVECgQRaoBRflH1whyPeImeomRbgZBMZLTgIijtzJ58afdEGreh2a2UbfqAHbNNkVbtpH50RqXkW_x0YxpnjQly81fOtbPwm1gkYSdISrZyy0ZcZXg3f__7KmLslfjIZKj7zwsEwtvvzYqAoVDfKUfxesUdlp38b4Y9lDy3zVKjBOH67gKVgTRR5HIO3qp8mLlxoK_YLGpvNkzhH3HKk4DyzwlSk5eSzDBiqmS1dJJA0w9BejiiBaxqfRKFwjD5BEkfyQtao-ei1yOYS4VBYB4BwExG3gs_RmsC7LMrK391OKgB5LwcdmUmyicSh029C-KH6YYHHHbr2TbK9AWtiSln5fs1bBRybhu9-gd8GrxycCZkZ5m5lT88_kHcNk6UgRzSr2Bkk2ncLpDrsV3nz [] []
[2022-02-06T16:03:56.954146+03:30] inputs.INFO: captcha: 03AGdBq25MtPFDiLGthDuEokW2nquzl7DI9UsbiurU2zF9iLHJvslI504ctVECgQRaoBRflH1whyPeImeomRbgZBMZLTgIijtzJ58afdEGreh2a2UbfqAHbNNkVbtpH50RqXkW_x0YxpnjQly81fOtbPwm1gkYSdISrZyy0ZcZXg3f__7KmLslfjIZKj7zwsEwtvvzYqAoVDfKUfxesUdlp38b4Y9lDy3zVKjBOH67gKVgTRR5HIO3qp8mLlxoK_YLGpvNkzhH3HKk4DyzwlSk5eSzDBiqmS1dJJA0w9BejiiBaxqfRKFwjD5BEkfyQtao-ei1yOYS4VBYB4BwExG3gs_RmsC7LMrK391OKgB5LwcdmUmyicSh029C-KH6YYHHHbr2TbK9AWtiSln5fs1bBRybhu9-gd8GrxycCZkZ5m5lT88_kHcNk6UgRzSr2Bkk2ncLpDrsV3nz [] []
[2022-02-06T16:12:56.178777+03:30] inputs.INFO: random: 0.22674628833634758 [] []
[2022-02-06T16:12:56.180342+03:30] inputs.INFO: time: 1644151433 [] []
[2022-02-06T16:12:56.180667+03:30] inputs.INFO: origin: localhost [] []
[2022-02-06T16:12:56.180946+03:30] inputs.INFO: username: 09330938099 [] []
[2022-02-06T16:12:56.181225+03:30] inputs.INFO: password: 123456789 [] []
[2022-02-06T16:12:56.181495+03:30] inputs.INFO: captcha: 03AGdBq26kZ_C9osFsrFfNCiyG2p1JQ28Qu--KYxnK2B3xOPfEMBjfztJlprEnUC3u77lNH7iwed-3nbQ5VwbKiyQifg8StiYtLRhFeVV9kAc9JULbenet2APC2eqQ8jIdfYyCoc4GqXsUdov4RU9WfMBxPZ6F7iHCjaPzkM5tz5TaWGjtxfOXqTTs7QrWwBHL5jwwZ8QcQlu0ivf-N0mbtrW1UZ9SLOcV6Qe_EDZuTqe8IQiOseqB-iOK-1wsdAsWqVvvDpZDkuuErPyLotURFO5ofFVEXruGTbv2Ra4IK0PmrFtPQefsErakFp0v3imlDu09QBg7Xq55F4B34jMh_iy7xwKDfQSClwfQibng0U7nkSI-MyZTx3su-BdJ4JWcVh1Isdm0C1b2JcsxwrAxi0tUdqtgvX0Pi48ejZ7a9sZWJJXbud27fKW-YrZG9oX6F0s7-v4zowIv [] []
[2022-02-06T16:12:56.181837+03:30] inputs.INFO: captcha: 03AGdBq26kZ_C9osFsrFfNCiyG2p1JQ28Qu--KYxnK2B3xOPfEMBjfztJlprEnUC3u77lNH7iwed-3nbQ5VwbKiyQifg8StiYtLRhFeVV9kAc9JULbenet2APC2eqQ8jIdfYyCoc4GqXsUdov4RU9WfMBxPZ6F7iHCjaPzkM5tz5TaWGjtxfOXqTTs7QrWwBHL5jwwZ8QcQlu0ivf-N0mbtrW1UZ9SLOcV6Qe_EDZuTqe8IQiOseqB-iOK-1wsdAsWqVvvDpZDkuuErPyLotURFO5ofFVEXruGTbv2Ra4IK0PmrFtPQefsErakFp0v3imlDu09QBg7Xq55F4B34jMh_iy7xwKDfQSClwfQibng0U7nkSI-MyZTx3su-BdJ4JWcVh1Isdm0C1b2JcsxwrAxi0tUdqtgvX0Pi48ejZ7a9sZWJJXbud27fKW-YrZG9oX6F0s7-v4zowIv [] []
[2022-02-06T16:13:18.304126+03:30] inputs.INFO: random: 0.49652327988428513 [] []
[2022-02-06T16:13:18.305350+03:30] inputs.INFO: time: 1644151455 [] []
[2022-02-06T16:13:18.305693+03:30] inputs.INFO: origin: localhost [] []
[2022-02-06T16:13:18.306001+03:30] inputs.INFO: username: 09330938099 [] []
[2022-02-06T16:13:18.306321+03:30] inputs.INFO: password: 123456789 [] []
[2022-02-06T16:13:18.306631+03:30] inputs.INFO: captcha: 03AGdBq25rJl3fZuXqfbaCL5LFLCHImcaHYCzPsXT9enf1XDC760Q8QAdnKhBPpNC8zuj4atdx0XZ6-Kk6-lQMFuy310QBsD4ieTz5NRhFGGjI4TN4oak0KYrnCR0ak2gZVxTpgZ1LpljX09LdPNNxl3BruWvOj7F_JK1rp0uPOopn1ef5BDwNAnmpgycybzGe9YaheCRHYOZW955k1qWdBbiXDVq-HsA0CMN-YGJzjDDTLF2ZuOGUKwIRKvYLuKcoXw980qYW0MvEhst5bBO7m-usYGsBxq44RoHbs18Ho1M82iqDl_krnqMGleWiCYoaFiJ-3yVPh81xYnuAovvyA17jQnMS9O26pMp0S_P-TeVSRqJLIUTagwyPm-cyMgpnEnGVZR24InzivLYo46mBnqBVTMzm1CUg3dZ1WdMGuHivOuIjPaJ71PM6dONFHvl5MMyiKUy5a5U1 [] []
[2022-02-06T16:13:18.306926+03:30] inputs.INFO: captcha: 03AGdBq25rJl3fZuXqfbaCL5LFLCHImcaHYCzPsXT9enf1XDC760Q8QAdnKhBPpNC8zuj4atdx0XZ6-Kk6-lQMFuy310QBsD4ieTz5NRhFGGjI4TN4oak0KYrnCR0ak2gZVxTpgZ1LpljX09LdPNNxl3BruWvOj7F_JK1rp0uPOopn1ef5BDwNAnmpgycybzGe9YaheCRHYOZW955k1qWdBbiXDVq-HsA0CMN-YGJzjDDTLF2ZuOGUKwIRKvYLuKcoXw980qYW0MvEhst5bBO7m-usYGsBxq44RoHbs18Ho1M82iqDl_krnqMGleWiCYoaFiJ-3yVPh81xYnuAovvyA17jQnMS9O26pMp0S_P-TeVSRqJLIUTagwyPm-cyMgpnEnGVZR24InzivLYo46mBnqBVTMzm1CUg3dZ1WdMGuHivOuIjPaJ71PM6dONFHvl5MMyiKUy5a5U1 [] []
[2022-02-06T16:13:21.665677+03:30] inputs.INFO: random: 0.16391803712865127 [] []
[2022-02-06T16:13:21.666923+03:30] inputs.INFO: time: 1644151459 [] []
[2022-02-06T16:13:21.667313+03:30] inputs.INFO: origin: localhost [] []
[2022-02-06T16:13:21.667730+03:30] inputs.INFO: origin: localhost [] []
[2022-02-06T16:13:36.163641+03:30] inputs.INFO: random: 0.8220747946674063 [] []
[2022-02-06T16:13:36.164889+03:30] inputs.INFO: time: 1644151473 [] []
[2022-02-06T16:13:36.165210+03:30] inputs.INFO: origin: localhost [] []
[2022-02-06T16:13:36.165547+03:30] inputs.INFO: origin: localhost [] []
[2022-02-06T16:14:15.534363+03:30] inputs.INFO: random: 0.5560623630839259 [] []
[2022-02-06T16:14:15.535701+03:30] inputs.INFO: time: 1644151512 [] []
[2022-02-06T16:14:15.536156+03:30] inputs.INFO: origin: localhost [] []
[2022-02-06T16:14:15.536541+03:30] inputs.INFO: username: 09330938099 [] []
[2022-02-06T16:14:15.536912+03:30] inputs.INFO: password: 123456798 [] []
[2022-02-06T16:14:15.537229+03:30] inputs.INFO: captcha: 03AGdBq26FUW3CpLS3AtCi6rLqiPxG3BGm9TsuCLXgIT3KGDtVbvf_yqV8TDhN6XBsPs4ERWp3-nHZZ6ffH4yjSyNG6YWxYzZFd3BROhVyDaQiSSIjswgFiCVvhz9GgtkrF6yMgJMY8LeFfyzvfee_wWA1GfDMVt5qsCC9JpxB2jSvZFRRgEs5YLlTpRC5VJ3CdME_5_gRhpCG9tek1VgRBIk7E988l5rueQhQsFLXlFIXQhF9v2Sumlhc52LHjc0FSbdKbUJqzqL8YpFFO57FlYMUS4cRyTEbm5V8VWcQW8EYjD2xy_wAHd7UB-2BwRu2I8YZgVsVj2I1Vfb1C2o0xLWd4QlSezX3tzd615z1uYXuceKkJrZWrgxt9Q6LdO2F3CeZsr0B1QZvepQ_vOvm5MuKr1z4ZGvRsuS7dpiOwXJO5LQOEOvmdoM [] []
[2022-02-06T16:14:15.537534+03:30] inputs.INFO: captcha: 03AGdBq26FUW3CpLS3AtCi6rLqiPxG3BGm9TsuCLXgIT3KGDtVbvf_yqV8TDhN6XBsPs4ERWp3-nHZZ6ffH4yjSyNG6YWxYzZFd3BROhVyDaQiSSIjswgFiCVvhz9GgtkrF6yMgJMY8LeFfyzvfee_wWA1GfDMVt5qsCC9JpxB2jSvZFRRgEs5YLlTpRC5VJ3CdME_5_gRhpCG9tek1VgRBIk7E988l5rueQhQsFLXlFIXQhF9v2Sumlhc52LHjc0FSbdKbUJqzqL8YpFFO57FlYMUS4cRyTEbm5V8VWcQW8EYjD2xy_wAHd7UB-2BwRu2I8YZgVsVj2I1Vfb1C2o0xLWd4QlSezX3tzd615z1uYXuceKkJrZWrgxt9Q6LdO2F3CeZsr0B1QZvepQ_vOvm5MuKr1z4ZGvRsuS7dpiOwXJO5LQOEOvmdoM [] []
[2022-02-06T16:14:21.676599+03:30] inputs.INFO: random: 0.4934409626301459 [] []
[2022-02-06T16:14:21.677807+03:30] inputs.INFO: time: 1644151519 [] []
[2022-02-06T16:14:21.678121+03:30] inputs.INFO: origin: localhost [] []
[2022-02-06T16:14:21.678423+03:30] inputs.INFO: username: 09330938099 [] []
[2022-02-06T16:14:21.678710+03:30] inputs.INFO: password: 123456798 [] []
[2022-02-06T16:14:21.678994+03:30] inputs.INFO: captcha: 03AGdBq25i2DYd_E0QNVnoKTrunjTWQk__IUsKJBezNGBQPI5wqszt4A-zLoD5rfXqaAXntiDSDvP_RkpIYnmDi39Y83MQKyDYe1Zx8CXXvrTA9maI9eO8cBo928paJqcUnQf-FgcrnMPzIABxaG2i5khozpyUW0ROtsksWGMWmvfdJXjDcflwHWgnAtx2zXSggrhjKWb0_9sRd9n8-u3-wgza3ODtH2ALnifI3neXevfcuPKLaiXyaqis1HNRMbi4r0HodilFiBoepu6fzEzJnQdP8yk45kEB4YvqDCvdI6d04qPeluK9xvsDBRYDYgYP6nNMalB0cbrHRp2wXAWgnYBLogsH8Oz0mdgvMpov5J4PKR-8Ay1ezbage5xS8eq2rQMISlcPjuXvcRYT1dsKKfVOOK1K3a-rGII7elZetXOXDzacU9c1A9HwJwZjoI5yWJcJTBb-6ANt [] []
[2022-02-06T16:14:21.679270+03:30] inputs.INFO: captcha: 03AGdBq25i2DYd_E0QNVnoKTrunjTWQk__IUsKJBezNGBQPI5wqszt4A-zLoD5rfXqaAXntiDSDvP_RkpIYnmDi39Y83MQKyDYe1Zx8CXXvrTA9maI9eO8cBo928paJqcUnQf-FgcrnMPzIABxaG2i5khozpyUW0ROtsksWGMWmvfdJXjDcflwHWgnAtx2zXSggrhjKWb0_9sRd9n8-u3-wgza3ODtH2ALnifI3neXevfcuPKLaiXyaqis1HNRMbi4r0HodilFiBoepu6fzEzJnQdP8yk45kEB4YvqDCvdI6d04qPeluK9xvsDBRYDYgYP6nNMalB0cbrHRp2wXAWgnYBLogsH8Oz0mdgvMpov5J4PKR-8Ay1ezbage5xS8eq2rQMISlcPjuXvcRYT1dsKKfVOOK1K3a-rGII7elZetXOXDzacU9c1A9HwJwZjoI5yWJcJTBb-6ANt [] []
[2022-02-06T16:14:31.992998+03:30] inputs.INFO: random: 0.4480210529225441 [] []
[2022-02-06T16:14:31.994201+03:30] inputs.INFO: time: 1644151529 [] []
[2022-02-06T16:14:31.994579+03:30] inputs.INFO: origin: localhost [] []
[2022-02-06T16:14:31.994935+03:30] inputs.INFO: username: 09330938099 [] []
[2022-02-06T16:14:31.995307+03:30] inputs.INFO: password: 123456789 [] []
[2022-02-06T16:14:31.995728+03:30] inputs.INFO: captcha: 03AGdBq245W97ozx9fnkte9QlFdEz94q94A_mRf8V-bACe0-m2RvOUThlHmHq2fEPnkmxSul6fPOhc1gixl4SBejzxGzlaGa6bv3vexsGgr7SIaJXymj-1gk8jcfEK0ORTx31YKq1JN13P4Nv68NjAMrM0HgsLeDYryTy67khNuAEzrFK9v_JlJuso0bvK4k8O4B2_9_PuP9Hs9t55mZzDt4SsNl4PKr4NLxKDS-ybf0O3zbMjUMfwqDzq_o1xssnb3cKMvFdghtI_drSJVEV5Vf1XiOQb6n83yHomNyAsIiGcmeJu3nqnjo6s31Vl6kyiXLJ60Ak7u6z7t_FyxIPFwJxKwt7PiEfw4Ogh5QVGsekg8vuvEgw7j8wD2TJVp2gb-_ehS92FQIPWZsmqMyxPdfFE4KL3ArMd_UURHIfDmd666CaMUO0rMwDzRVwgoWG120i53jhKaesg [] []
[2022-02-06T16:14:31.996068+03:30] inputs.INFO: captcha: 03AGdBq245W97ozx9fnkte9QlFdEz94q94A_mRf8V-bACe0-m2RvOUThlHmHq2fEPnkmxSul6fPOhc1gixl4SBejzxGzlaGa6bv3vexsGgr7SIaJXymj-1gk8jcfEK0ORTx31YKq1JN13P4Nv68NjAMrM0HgsLeDYryTy67khNuAEzrFK9v_JlJuso0bvK4k8O4B2_9_PuP9Hs9t55mZzDt4SsNl4PKr4NLxKDS-ybf0O3zbMjUMfwqDzq_o1xssnb3cKMvFdghtI_drSJVEV5Vf1XiOQb6n83yHomNyAsIiGcmeJu3nqnjo6s31Vl6kyiXLJ60Ak7u6z7t_FyxIPFwJxKwt7PiEfw4Ogh5QVGsekg8vuvEgw7j8wD2TJVp2gb-_ehS92FQIPWZsmqMyxPdfFE4KL3ArMd_UURHIfDmd666CaMUO0rMwDzRVwgoWG120i53jhKaesg [] []
[2022-02-06T16:14:35.333961+03:30] inputs.INFO: random: 0.9891838357994398 [] []
[2022-02-06T16:14:35.335188+03:30] inputs.INFO: time: 1644151532 [] []
[2022-02-06T16:14:35.335487+03:30] inputs.INFO: origin: localhost [] []
[2022-02-06T16:14:35.335799+03:30] inputs.INFO: origin: localhost [] []
[2022-02-06T16:18:46.151953+03:30] inputs.INFO: random: 0.1405822744677343 [] []
[2022-02-06T16:18:46.153577+03:30] inputs.INFO: time: 1644151783 [] []
[2022-02-06T16:18:46.153887+03:30] inputs.INFO: origin: localhost [] []
[2022-02-06T16:18:46.154208+03:30] inputs.INFO: origin: localhost [] []
[2022-02-06T16:18:50.553219+03:30] inputs.INFO: random: 0.23476863055902752 [] []
[2022-02-06T16:18:50.554448+03:30] inputs.INFO: time: 1644151787 [] []
[2022-02-06T16:18:50.554738+03:30] inputs.INFO: origin: localhost [] []
[2022-02-06T16:18:50.555013+03:30] inputs.INFO: origin: localhost [] []
[2022-02-06T16:19:10.740912+03:30] inputs.INFO: random: 0.3041191424884109 [] []
[2022-02-06T16:19:10.742154+03:30] inputs.INFO: time: 1644151808 [] []
[2022-02-06T16:19:10.742477+03:30] inputs.INFO: origin: localhost [] []
[2022-02-06T16:19:10.742781+03:30] inputs.INFO: username: 09330938099 [] []
[2022-02-06T16:19:10.743071+03:30] inputs.INFO: password: 123456789 [] []
[2022-02-06T16:19:10.743360+03:30] inputs.INFO: captcha: 03AGdBq26vhrjHfLkAuDlyw6fJPUoMa0-ASlPQ_69-InZK02OG0drPVQGATE6UDWDGfIMlXKCkIQPEq6Z8N_b5WlSGDSceBHUcKi2Hr__A2RFaXweqI4A-zY3aW4rOd9AP4m0oXQH1xGxXLuTJpI1R-Z8ryBTWWVHLci_BSsp-S5B7JFO3HPGLqi5_YxROlra3urj47RUf1kAq0RRHBZytXH6J_E3r5cnpTUIPjlL4DCDBN4IZVtsqVBWcYdsP9i6iu4MSIXOw1xLLSLo6C2mJaICoxkyrLMpryYS89Hbil9jmYXgdwhgqpcrvw8g1RBmvqXRYMFvCuBCFC-VqmHlAgnSmS99YWCXwkXVb4Ph3u-6D84zIjeGVJZodx2PP7KQuqOh3XWxrx0GrBdLOoAxRzOPlO0jiSw5MlSzLRHgdN6NyRh-bOXPbbIElV0K-1lT2f56Aj5f4b7G- [] []
[2022-02-06T16:19:10.743638+03:30] inputs.INFO: captcha: 03AGdBq26vhrjHfLkAuDlyw6fJPUoMa0-ASlPQ_69-InZK02OG0drPVQGATE6UDWDGfIMlXKCkIQPEq6Z8N_b5WlSGDSceBHUcKi2Hr__A2RFaXweqI4A-zY3aW4rOd9AP4m0oXQH1xGxXLuTJpI1R-Z8ryBTWWVHLci_BSsp-S5B7JFO3HPGLqi5_YxROlra3urj47RUf1kAq0RRHBZytXH6J_E3r5cnpTUIPjlL4DCDBN4IZVtsqVBWcYdsP9i6iu4MSIXOw1xLLSLo6C2mJaICoxkyrLMpryYS89Hbil9jmYXgdwhgqpcrvw8g1RBmvqXRYMFvCuBCFC-VqmHlAgnSmS99YWCXwkXVb4Ph3u-6D84zIjeGVJZodx2PP7KQuqOh3XWxrx0GrBdLOoAxRzOPlO0jiSw5MlSzLRHgdN6NyRh-bOXPbbIElV0K-1lT2f56Aj5f4b7G- [] []
[2022-02-06T16:19:14.098042+03:30] inputs.INFO: random: 0.8476967926948791 [] []
[2022-02-06T16:19:14.099376+03:30] inputs.INFO: time: 1644151811 [] []
[2022-02-06T16:19:14.099693+03:30] inputs.INFO: origin: localhost [] []
[2022-02-06T16:19:14.099991+03:30] inputs.INFO: origin: localhost [] []
